{
  "type": "FeatureCollection",
  "features": [
    {
      "type": "Feature",
      "geometry": {
        "type": "LineString",
        "coordinates": [
          [
            24.0797315189456,
            49.7832783268425
          ],
          [
            24.0826930620992,
            49.782357953316
          ],
          [
            24.0854026055774,
            49.7815004444437
          ],
          [
            24.0895560505144,
            49.780199764434
          ],
          [
            24.0924973312638,
            49.7792386200465
          ],
          [
            24.0933262376568,
            49.7788702722338
          ],
          [
            24.0939679716384,
            49.7785364546099
          ],
          [
            24.0952336136579,
            49.7775752772282
          ],
          [
            24.0979075052482,
            49.7752787343138
          ],
          [
            24.1011696529884,
            49.7725273441195
          ],
          [
            24.1034870257001,
            49.7707601554862
          ],
          [
            24.1051002736263,
            49.7696088578713
          ]
        ]
      },
      "properties": {
        "stroke": "#ff0000",
        "stroke-opacity": 1,
        "fill-opacity": 0,
        "length": "2432.1",
        "type_m": "приміський не в межах громади",
        "status": "перспективний"
      }
    },
    {
      "type": "Feature",
      "geometry": {
        "type": "LineString",
        "coordinates": [
          [
            24.0856744512224,
            49.7775349879396
          ],
          [
            24.0852435615962,
            49.7778198259946
          ],
          [
            24.083936847157,
            49.7785174634479
          ],
          [
            24.0830725635909,
            49.7790556340492
          ],
          [
            24.0826198436277,
            49.7792815310391
          ],
          [
            24.0811485037474,
            49.7801452451123
          ],
          [
            24.0787202784903,
            49.7812481191623
          ],
          [
            24.0774752985915,
            49.7818726270701
          ],
          [
            24.0768682422773,
            49.7823576117008
          ]
        ]
      },
      "properties": {
        "stroke": "#ff0000",
        "stroke-opacity": 1,
        "fill-opacity": 0,
        "street": "Грунтова,  вул.",
        "length": "833.4",
        "type_m": "приміський не в межах громади",
        "status": "перспективний"
      }
    },
    {
      "type": "Feature",
      "geometry": {
        "type": "LineString",
        "coordinates": [
          [
            23.8902537708721,
            49.8317500590398
          ],
          [
            23.8905383514423,
            49.8316650397385
          ],
          [
            23.8908708613717,
            49.8315162556015
          ],
          [
            23.8909936803547,
            49.8314351004248
          ],
          [
            23.891095530243,
            49.8312843833068
          ],
          [
            23.8914070710777,
            49.8306080827643
          ],
          [
            23.891871386745,
            49.8297114868948
          ],
          [
            23.8922518260336,
            49.8292457915337
          ],
          [
            23.8931265368389,
            49.8285153557533
          ],
          [
            23.8931984308777,
            49.8284245336021
          ],
          [
            23.8933811615597,
            49.8281018237282
          ],
          [
            23.8934770202781,
            49.827813895137
          ],
          [
            23.8936807200547,
            49.8269829506663
          ],
          [
            23.8939802785496,
            49.8262389533891
          ],
          [
            23.8943277664038,
            49.8255123372111
          ],
          [
            23.8944475898018,
            49.8253770617175
          ],
          [
            23.8947471482968,
            49.8252127981096
          ],
          [
            23.895690757556,
            49.8248127655785
          ],
          [
            23.8962359540168,
            49.8245711984384
          ],
          [
            23.8970837045576,
            49.824072600047
          ],
          [
            23.8973832630526,
            49.8238832086137
          ],
          [
            23.8975600025646,
            49.8237730520308
          ],
          [
            23.8978116317004,
            49.8236551648836
          ],
          [
            23.8981711018944,
            49.8235469403644
          ],
          [
            23.8982909252924,
            49.8235276145319
          ],
          [
            23.898791187979,
            49.8234696369881
          ],
          [
            23.8996419341047,
            49.82334788392
          ],
          [
            23.9005076581552,
            49.8232415913085
          ],
          [
            23.9015531173027,
            49.8232589846609
          ],
          [
            23.9018526757977,
            49.8233150298651
          ],
          [
            23.9034493225759,
            49.8239469833628
          ],
          [
            23.9041143424348,
            49.8243064394674
          ],
          [
            23.9046805079903,
            49.8246504325933
          ],
          [
            23.9049740753154,
            49.8248436860853
          ],
          [
            23.9056301084194,
            49.8253171538781
          ],
          [
            23.9060614726522,
            49.825674667304
          ],
          [
            23.9069331878725,
            49.8263993485748
          ],
          [
            23.9069901039866,
            49.8264437953394
          ],
          [
            23.9077839339983,
            49.8270428564428
          ],
          [
            23.9080768000348,
            49.8272221761928
          ],
          [
            23.9098718567083,
            49.8248881342793
          ],
          [
            23.9105608412467,
            49.8240010952053
          ],
          [
            23.9110401348387,
            49.8233092320883
          ],
          [
            23.9113756403531,
            49.8228299468094
          ],
          [
            23.9116692076782,
            49.8224144335518
          ],
          [
            23.9118669162849,
            49.8221457974997
          ],
          [
            23.9124959891243,
            49.8212645061651
          ],
          [
            23.9126577507116,
            49.8211369495105
          ],
          [
            23.9127685873547,
            49.8210132578879
          ],
          [
            23.9130741370196,
            49.8208257871695
          ]
        ]
      },
      "properties": {
        "stroke": "#ff0000",
        "stroke-opacity": 1,
        "fill-opacity": 0,
        "priority": "ІІІ-ий пріоритет (поза ЛМТГ)",
        "length": "2827.5",
        "type_m": "приміський не в межах громади",
        "status": "перспективний",
        "hromada": "Зимноводівська ТГ",
        "dod1": "п.3.90.  Додатку 2 План дій"
      }
    },
    {
      "type": "Feature",
      "geometry": {
        "type": "LineString",
        "coordinates": [
          [
            23.9106169970456,
            49.8283692299728
          ],
          [
            23.9101356965593,
            49.8282082416096
          ],
          [
            23.9091730955868,
            49.827909261799
          ],
          [
            23.9086962515865,
            49.8277108991743
          ],
          [
            23.908558100521,
            49.8275959059758
          ],
          [
            23.9083441891938,
            49.8274780376637
          ],
          [
            23.9079698443711,
            49.8273687936057
          ],
          [
            23.9080768000348,
            49.8272221761928
          ]
        ]
      },
      "properties": {
        "stroke": "#ff0000",
        "stroke-opacity": 1,
        "fill-opacity": 0,
        "street": "Конюшинна",
        "priority": "ІV-ий пріоритет",
        "length": "240.6",
        "type_m": "приміський не в межах громади",
        "city": "Львів",
        "status": "перспективний",
        "dod1": "п.4.94.  Додатку 2 План дій"
      }
    },
    {
      "type": "Feature",
      "geometry": {
        "type": "LineString",
        "coordinates": [
          [
            24.0686885548947,
            49.7810385919338
          ],
          [
            24.0689202921659,
            49.7810011831265
          ],
          [
            24.0692812675306,
            49.7809637742904
          ],
          [
            24.0694194185961,
            49.780934998243
          ],
          [
            24.070000990017,
            49.7803551572452
          ],
          [
            24.0704756057743,
            49.7800386158071
          ],
          [
            24.0709190261297,
            49.779802647208
          ],
          [
            24.0726704251213,
            49.7787609184378
          ],
          [
            24.0730002050841,
            49.77851343262
          ],
          [
            24.0738469374211,
            49.7778400345772
          ],
          [
            24.0740965006362,
            49.7777421896385
          ],
          [
            24.074417367627,
            49.7776961448931
          ],
          [
            24.0754067075155,
            49.7777652119948
          ],
          [
            24.0759949636653,
            49.7762744918492
          ],
          [
            24.0784192920406,
            49.7765853021499
          ],
          [
            24.0791768946578,
            49.7766428593943
          ],
          [
            24.0808614463598,
            49.7768040193148
          ],
          [
            24.0816457878929,
            49.7769364002771
          ],
          [
            24.0844177221749,
            49.7773392966327
          ],
          [
            24.0856744512224,
            49.7775349879396
          ],
          [
            24.086048796045,
            49.777333540994
          ],
          [
            24.0888029043831,
            49.7763262937044
          ],
          [
            24.0888786646448,
            49.7762572245518
          ],
          [
            24.0888920341028,
            49.7761967889625
          ],
          [
            24.0888875776168,
            49.7754888235893
          ],
          [
            24.0889633378785,
            49.7753132695997
          ],
          [
            24.089110401916,
            49.7751262031731
          ],
          [
            24.0894535513367,
            49.7748240174203
          ],
          [
            24.0900418074866,
            49.7741304220427
          ],
          [
            24.0901665890942,
            49.7738944246716
          ],
          [
            24.0904339782532,
            49.7731979379246
          ],
          [
            24.0908306055058,
            49.7725158316984
          ],
          [
            24.0910177779171,
            49.7720265512774
          ],
          [
            24.0912673411322,
            49.7711458340722
          ],
          [
            24.0914188616556,
            49.7705845843671
          ],
          [
            24.091588208123,
            49.7696865713209
          ],
          [
            24.0914545135435,
            49.7690303204963
          ],
          [
            24.0914901654314,
            49.7687280967338
          ],
          [
            24.0916327729829,
            49.7679941168938
          ],
          [
            24.0917620110764,
            49.7678300492921
          ],
          [
            24.0922789634505,
            49.767444344322
          ],
          [
            24.0925508090955,
            49.7672658827749
          ],
          [
            24.0926221128713,
            49.7670816637146
          ]
        ]
      },
      "properties": {
        "stroke": "#ff0000",
        "stroke-opacity": 1,
        "fill-opacity": 0,
        "length": "2880.1",
        "type_m": "приміський не в межах громади",
        "status": "перспективний"
      }
    },
    {
      "type": "Feature",
      "geometry": {
        "type": "LineString",
        "coordinates": [
          [
            24.1435544738092,
            49.8994753960171
          ],
          [
            24.1463951693781,
            49.9006088771748
          ],
          [
            24.1484221201224,
            49.9014704265951
          ],
          [
            24.1509429471901,
            49.90253740109
          ],
          [
            24.1514471126037,
            49.9027693489446
          ],
          [
            24.1517043398555,
            49.9029814145786
          ],
          [
            24.1519101216569,
            49.9032266143059
          ],
          [
            24.152198216179,
            49.9037832793307
          ],
          [
            24.1541634323828,
            49.9075936114887
          ],
          [
            24.1549271839039,
            49.9090650951714
          ]
        ]
      },
      "properties": {
        "stroke": "#ff0000",
        "stroke-opacity": 1,
        "fill-opacity": 0,
        "priority": "ІІ-ий пріоритет (поза ЛМТГ)",
        "length": "1420.8",
        "type_m": "приміський не в межах громади",
        "status": "перспективний",
        "hromada": "Мурованська"
      }
    },
    {
      "type": "Feature",
      "geometry": {
        "type": "LineString",
        "coordinates": [
          [
            23.8996068091738,
            49.8383790045501
          ],
          [
            23.9063282232193,
            49.8400558180474
          ],
          [
            23.9077533941057,
            49.8404284353719
          ],
          [
            23.9097948551052,
            49.8412357630571
          ],
          [
            23.9175562587165,
            49.844415260995
          ],
          [
            23.9242776727621,
            49.8469860302582
          ],
          [
            23.9246339654837,
            49.8466383013487
          ],
          [
            23.9249709991392,
            49.8465513687305
          ],
          [
            23.925423587191,
            49.8463961315234
          ],
          [
            23.9259050638418,
            49.846458226466
          ],
          [
            23.9262132088984,
            49.8464147600145
          ],
          [
            23.927185791733,
            49.8464520169753
          ],
          [
            23.9274361595915,
            49.8463464555118
          ]
        ]
      },
      "properties": {
        "stroke": "#ff0000",
        "stroke-opacity": 1,
        "fill-opacity": 0,
        "priority": "ІV-ий пріоритет (поза ЛМТГ)",
        "length": "2282.4",
        "type_m": "приміський не в межах громади",
        "status": "перспективний",
        "hromada": "Зимноводівська",
        "dod1": "п.4.95.  Додатку 2 План дій"
      }
    },
    {
      "type": "Feature",
      "geometry": {
        "type": "LineString",
        "coordinates": [
          [
            24.084589575418,
            49.7976979270357
          ],
          [
            24.0854647770328,
            49.7970974991459
          ],
          [
            24.0861232787974,
            49.7967122865312
          ],
          [
            24.0867920696521,
            49.7964067708991
          ],
          [
            24.088335433163,
            49.7958223008409
          ],
          [
            24.0886543949552,
            49.7957558833425
          ],
          [
            24.0891791385489,
            49.795689465753
          ],
          [
            24.0899611093944,
            49.7955101378062
          ],
          [
            24.0906710566094,
            49.7952843164842
          ],
          [
            24.0909591511314,
            49.7951315544046
          ],
          [
            24.0915970747159,
            49.7948061031498
          ],
          [
            24.0919983492288,
            49.7945072174177
          ],
          [
            24.0927597418941,
            49.7939360084428
          ],
          [
            24.0929037891551,
            49.7937799210974
          ],
          [
            24.0932278954924,
            49.7932087035441
          ],
          [
            24.093454255474,
            49.7928035335209
          ],
          [
            24.0935828690999,
            49.7925976261446
          ],
          [
            24.0938831680184,
            49.792213190625
          ]
        ]
      },
      "properties": {
        "stroke": "#ff0000",
        "stroke-opacity": 1,
        "fill-opacity": 0,
        "length": "944.4",
        "type_m": "приміський не в межах громади",
        "status": "перспективний"
      }
    },
    {
      "type": "Feature",
      "geometry": {
        "type": "LineString",
        "coordinates": [
          [
            24.1009498575918,
            49.7911230380605
          ],
          [
            24.1009498575918,
            49.7911230380605
          ]
        ]
      },
      "properties": {
        "stroke": "#ff0000",
        "stroke-opacity": 1,
        "fill-opacity": 0,
        "length": "0.0",
        "type_m": "приміський не в межах громади",
        "status": "перспективний"
      }
    },
    {
      "type": "Feature",
      "geometry": {
        "type": "LineString",
        "coordinates": [
          [
            24.1009498575918,
            49.7911230380605
          ],
          [
            24.101268819384,
            49.7910333657154
          ],
          [
            24.1026784247239,
            49.7907709901225
          ],
          [
            24.1035529973801,
            49.7906447836349
          ],
          [
            24.1042989564104,
            49.7905650741048
          ],
          [
            24.1050191927154,
            49.7904322245966
          ],
          [
            24.1057445735655,
            49.7902827684642
          ],
          [
            24.1061407035333,
            49.7902395921623
          ],
          [
            24.1067683380277,
            49.7900967779665
          ],
          [
            24.106948397104,
            49.7900967779665
          ],
          [
            24.107380538887,
            49.7902163433684
          ],
          [
            24.1078229697602,
            49.7902894109687
          ],
          [
            24.1080030288364,
            49.7903026959751
          ],
          [
            24.1093148878207,
            49.7903591572117
          ],
          [
            24.109510380532,
            49.7903691209525
          ],
          [
            24.1099939677654,
            49.7905285405264
          ],
          [
            24.1101122923013,
            49.7905551104043
          ],
          [
            24.1102614841073,
            49.7905484679362
          ],
          [
            24.1107244931606,
            49.7904621157677
          ],
          [
            24.110925130417,
            49.7904687582476
          ],
          [
            24.1112440922092,
            49.7904986493962
          ],
          [
            24.1115887767267,
            49.7905650741048
          ],
          [
            24.1128491902605,
            49.7906979232487
          ],
          [
            24.113054972062,
            49.7907178505888
          ],
          [
            24.1131784411429,
            49.7907012444726
          ],
          [
            24.1133893674894,
            49.7906115713466
          ],
          [
            24.1136980401915,
            49.7904355458387
          ],
          [
            24.1139501228983,
            49.7903259447276
          ],
          [
            24.1142022056051,
            49.7901731670073
          ],
          [
            24.1148709964598,
            49.7899141080326
          ],
          [
            24.1160645309082,
            49.7893793793569
          ],
          [
            24.1163371917951,
            49.7892598118889
          ],
          [
            24.1177313634999,
            49.7888811796264
          ],
          [
            24.118317841634,
            49.7887416827836
          ],
          [
            24.118873452498,
            49.7886221137415
          ],
          [
            24.1189454761285,
            49.7886486846652
          ],
          [
            24.1196605678885,
            49.7885556863683
          ],
          [
            24.1233234839543,
            49.7880109784721
          ],
          [
            24.1240334311693,
            49.78785819345
          ],
          [
            24.1243112366012,
            49.787751907933
          ],
          [
            24.125134363807,
            49.787705407946
          ],
          [
            24.1253813019688,
            49.7876323364476
          ],
          [
            24.1258648892022,
            49.787559264839
          ],
          [
            24.1264410782462,
            49.7874861931202
          ],
          [
            24.1269658218399,
            49.7873334064429
          ],
          [
            24.1275111436138,
            49.7872736202206
          ],
          [
            24.1285297635309,
            49.7872603343833
          ],
          [
            24.1290647962147,
            49.7872271197744
          ],
          [
            24.1296512743488,
            49.7871208328727
          ],
          [
            24.1303303542936,
            49.7870411175434
          ],
          [
            24.1307419178965,
            49.7870079027842
          ],
          [
            24.1310403015086,
            49.7869215443035
          ],
          [
            24.1312563724001,
            49.7868152567313
          ],
          [
            24.1316885141832,
            49.7866890399365
          ],
          [
            24.1320383432456,
            49.7866358959245
          ],
          [
            24.1326659777401,
            49.7865893948661
          ],
          [
            24.1331907213337,
            49.7865694658275
          ],
          [
            24.1338080667381,
            49.7866159669049
          ],
          [
            24.133941824909,
            49.7866226099124
          ],
          [
            24.1345797484935,
            49.7866691109388
          ],
          [
            24.1359996429235,
            49.7867621128578
          ],
          [
            24.1378516791366,
            49.7869016154015
          ],
          [
            24.1381912191089,
            49.7868484716227
          ],
          [
            24.1385719154416,
            49.7867488268803
          ],
          [
            24.1388858086521,
            49.7873048662766
          ],
          [
            24.140658404528,
            49.7898361473275
          ],
          [
            24.1405459594722,
            49.7900069558732
          ],
          [
            24.1403938279261,
            49.7901777638166
          ],
          [
            24.1402152387199,
            49.790301599199
          ],
          [
            24.139811759402,
            49.7905151077353
          ],
          [
            24.1392627629532,
            49.7909036908561
          ],
          [
            24.1373578114198,
            49.7923555122955
          ],
          [
            24.1370601627427,
            49.7926501413342
          ],
          [
            24.1369642537245,
            49.7927419456685
          ],
          [
            24.1368650374988,
            49.7928700444487
          ],
          [
            24.1368683447063,
            49.7930344373869
          ],
          [
            24.1368881879515,
            49.7931625353934
          ],
          [
            24.1369874041772,
            49.7938905526294
          ],
          [
            24.137113078063,
            49.7944370921015
          ],
          [
            24.1372784384392,
            49.7951650901777
          ],
          [
            24.1375628582862,
            49.7956988061548
          ],
          [
            24.1381416196028,
            49.7966915022268
          ],
          [
            24.1379894880567,
            49.7968452081863
          ],
          [
            24.136607075312,
            49.7971227315996
          ],
          [
            24.1364284861057,
            49.7971803708783
          ],
          [
            24.1362829689747,
            49.7972614927099
          ],
          [
            24.1361969815791,
            49.7973532883027
          ],
          [
            24.1361506806738,
            49.7974173316365
          ],
          [
            24.1360083450346,
            49.7977176649545
          ]
        ]
      },
      "properties": {
        "stroke": "#ff0000",
        "stroke-opacity": 1,
        "fill-opacity": 0,
        "length": "4300.9",
        "type_m": "приміський не в межах громади",
        "status": "перспективний"
      }
    },
    {
      "type": "Feature",
      "geometry": {
        "type": "LineString",
        "coordinates": [
          [
            23.9802543875055,
            49.7999154327443
          ],
          [
            23.9800643115397,
            49.7984901634826
          ],
          [
            23.9797299161123,
            49.7968430733847
          ],
          [
            23.9793749425048,
            49.794780811032
          ],
          [
            23.9791948834286,
            49.7933527840298
          ],
          [
            23.9789891016271,
            49.7921239829043
          ],
          [
            23.9788193316409,
            49.7908021566175
          ],
          [
            23.9786392725646,
            49.7889123473374
          ],
          [
            23.9786084052944,
            49.7885370337312
          ],
          [
            23.9786135498395,
            49.7883875717509
          ],
          [
            23.9786701398349,
            49.7882148595549
          ],
          [
            23.9787473080104,
            49.7880753607932
          ],
          [
            23.9787370189203,
            49.7879059688995
          ],
          [
            23.9786649952898,
            49.7878295762831
          ],
          [
            23.9786495616547,
            49.7877232907033
          ],
          [
            23.978541526209,
            49.787557219018
          ],
          [
            23.9785106589387,
            49.7874077540145
          ],
          [
            23.9784592134884,
            49.7872848602216
          ]
        ]
      },
      "properties": {
        "stroke": "#ff0000",
        "stroke-opacity": 1,
        "fill-opacity": 0,
        "length": "1415.8",
        "type_m": "приміський не в межах громади",
        "status": "перспективний"
      }
    },
    {
      "type": "Feature",
      "geometry": {
        "type": "LineString",
        "coordinates": [
          [
            24.0529052904636,
            49.9394803712362
          ],
          [
            24.0543995402078,
            49.9447489372195
          ],
          [
            24.0548778697034,
            49.9474121539254
          ],
          [
            24.0507184827847,
            49.9479474560931
          ],
          [
            24.0449785288368,
            49.9487370159313
          ],
          [
            24.0415054407597,
            49.9492053927696
          ],
          [
            24.0410687051332,
            49.9492723033747
          ],
          [
            24.0383408244946,
            49.9498442507895
          ]
        ]
      },
      "properties": {
        "stroke": "#ff0000",
        "stroke-opacity": 1,
        "fill-opacity": 0,
        "priority": "ІV-ий пріоритет (поза ЛМТГ)",
        "length": "2112.3",
        "type_m": "приміський не в межах громади",
        "status": "перспективний",
        "hromada": "Куликівська",
        "dod1": "п.4.113.  Додатку 2 План дій"
      }
    }
  ]
}
